VSDBabySoC/Output/avsddac.vcd
$date
	Sat Oct  4 21:55:58 2025
$end
$version
	Icarus Verilog
$end
$timescale
	1ps
$end
$scope module tb_avsddac $end
$var reg 10 ! D [9:0] $end
$var real 1 " VREFH $end
$var real 1 # VREFL $end
$var real 1 $ OUT $end
$scope module uut $end
$var wire 10 % D [9:0] $end
$var wire 1 & EN $end
$var wire 11 ' Dext [10:0] $end
$var real 1 ( NaN $end
$var real 1 ) OUT $end
$var real 1 * VREFH $end
$var real 1 + VREFL $end
$upscope $end
$upscope $end
$enddefinitions $end
$comment Show the parameter values. $end
$dumpall
$end
#0
$dumpvars
r0 +
r3.3 *
r0 )
rnan (
b0 '
1&
b0 %
r0 $
r0 #
r3.3 "
b0 !
$end
#10000
r0.003225806451612903 $
r0.003225806451612903 )
b1 '
b1 !
b1 %
#20000
r0.006451612903225806 $
r0.006451612903225806 )
b10 '
b10 !
b10 %
#30000
r0.009677419354838708 $
r0.009677419354838708 )
b11 '
b11 !
b11 %
#40000
r0.01290322580645161 $
r0.01290322580645161 )
b100 '
b100 !
b100 %
#50000
r0.01612903225806452 $
r0.01612903225806452 )
b101 '
b101 !
b101 %
#60000
r0.01935483870967742 $
r0.01935483870967742 )
b110 '
b110 !
b110 %
#70000
r0.02258064516129032 $
r0.02258064516129032 )
b111 '
b111 !
b111 %
#80000
r0.02580645161290323 $
r0.02580645161290323 )
b1000 '
b1000 !
b1000 %
#90000
r0.02903225806451613 $
r0.02903225806451613 )
b1001 '
b1001 !
b1001 %
#100000
r0.03225806451612903 $
r0.03225806451612903 )
b1010 '
b1010 !
b1010 %
#110000
r0.03548387096774194 $
r0.03548387096774194 )
b1011 '
b1011 !
b1011 %
#120000
r0.03870967741935483 $
r0.03870967741935483 )
b1100 '
b1100 !
b1100 %
#130000
r0.04193548387096774 $
r0.04193548387096774 )
b1101 '
b1101 !
b1101 %
#140000
r0.04516129032258064 $
r0.04516129032258064 )
b1110 '
b1110 !
b1110 %
#150000
r0.04838709677419355 $
r0.04838709677419355 )
b1111 '
b1111 !
b1111 %
#160000
r0.05161290322580645 $
r0.05161290322580645 )
b10000 '
b10000 !
b10000 %
#170000
r0.05483870967741935 $
r0.05483870967741935 )
b10001 '
b10001 !
b10001 %
#180000
r0.05806451612903226 $
r0.05806451612903226 )
b10010 '
b10010 !
b10010 %
#190000
r0.06129032258064516 $
r0.06129032258064516 )
b10011 '
b10011 !
b10011 %
#200000
r0.06451612903225806 $
r0.06451612903225806 )
b10100 '
b10100 !
b10100 %
#210000
r0.06774193548387096 $
r0.06774193548387096 )
b10101 '
b10101 !
b10101 %
#220000
r0.07096774193548387 $
r0.07096774193548387 )
b10110 '
b10110 !
b10110 %
#230000
r0.07419354838709677 $
r0.07419354838709677 )
b10111 '
b10111 !
b10111 %
#240000
r0.07741935483870967 $
r0.07741935483870967 )
b11000 '
b11000 !
b11000 %
#250000
r0.08064516129032258 $
r0.08064516129032258 )
b11001 '
b11001 !
b11001 %
#260000
r0.08387096774193549 $
r0.08387096774193549 )
b11010 '
b11010 !
b11010 %
#270000
r0.08709677419354839 $
r0.08709677419354839 )
b11011 '
b11011 !
b11011 %
#280000
r0.09032258064516129 $
r0.09032258064516129 )
b11100 '
b11100 !
b11100 %
#290000
r0.09354838709677418 $
r0.09354838709677418 )
b11101 '
b11101 !
b11101 %
#300000
r0.09677419354838709 $
r0.09677419354838709 )
b11110 '
b11110 !
b11110 %
#310000
r0.09999999999999999 $
r0.09999999999999999 )
b11111 '
b11111 !
b11111 %
#320000
r0.1032258064516129 $
r0.1032258064516129 )
b100000 '
b100000 !
b100000 %
#330000
r0.1064516129032258 $
r0.1064516129032258 )
b100001 '
b100001 !
b100001 %
#340000
r0.1096774193548387 $
r0.1096774193548387 )
b100010 '
b100010 !
b100010 %
#350000
r0.1129032258064516 $
r0.1129032258064516 )
b100011 '
b100011 !
b100011 %
#360000
r0.1161290322580645 $
r0.1161290322580645 )
b100100 '
b100100 !
b100100 %
#370000
r0.1193548387096774 $
r0.1193548387096774 )
b100101 '
b100101 !
b100101 %
#380000
r0.1225806451612903 $
r0.1225806451612903 )
b100110 '
b100110 !
b100110 %
#390000
r0.1258064516129032 $
r0.1258064516129032 )
b100111 '
b100111 !
b100111 %
#400000
r0.1290322580645161 $
r0.1290322580645161 )
b101000 '
b101000 !
b101000 %
#410000
r0.132258064516129 $
r0.132258064516129 )
b101001 '
b101001 !
b101001 %
#420000
r0.1354838709677419 $
r0.1354838709677419 )
b101010 '
b101010 !
b101010 %
#430000
r0.1387096774193548 $
r0.1387096774193548 )
b101011 '
b101011 !
b101011 %
#440000
r0.1419354838709677 $
r0.1419354838709677 )
b101100 '
b101100 !
b101100 %
#450000
r0.1451612903225807 $
r0.1451612903225807 )
b101101 '
b101101 !
b101101 %
#460000
r0.1483870967741935 $
r0.1483870967741935 )
b101110 '
b101110 !
b101110 %
#470000
r0.1516129032258065 $
r0.1516129032258065 )
b101111 '
b101111 !
b101111 %
#480000
r0.1548387096774193 $
r0.1548387096774193 )
b110000 '
b110000 !
b110000 %
#490000
r0.1580645161290322 $
r0.1580645161290322 )
b110001 '
b110001 !
b110001 %
#500000
r0.1612903225806452 $
r0.1612903225806452 )
b110010 '
b110010 !
b110010 %
#510000
r0.164516129032258 $
r0.164516129032258 )
b110011 '
b110011 !
b110011 %
#520000
r0.167741935483871 $
r0.167741935483871 )
b110100 '
b110100 !
b110100 %
#530000
r0.1709677419354839 $
r0.1709677419354839 )
b110101 '
b110101 !
b110101 %
#540000
r0.1741935483870968 $
r0.1741935483870968 )
b110110 '
b110110 !
b110110 %
#550000
r0.1774193548387097 $
r0.1774193548387097 )
b110111 '
b110111 !
b110111 %
#560000
r0.1806451612903226 $
r0.1806451612903226 )
b111000 '
b111000 !
b111000 %
#570000
r0.1838709677419355 $
r0.1838709677419355 )
b111001 '
b111001 !
b111001 %
#580000
r0.1870967741935484 $
r0.1870967741935484 )
b111010 '
b111010 !
b111010 %
#590000
r0.1903225806451613 $
r0.1903225806451613 )
b111011 '
b111011 !
b111011 %
#600000
r0.1935483870967742 $
r0.1935483870967742 )
b111100 '
b111100 !
b111100 %
#610000
r0.1967741935483871 $
r0.1967741935483871 )
b111101 '
b111101 !
b111101 %
#620000
r0.2 $
r0.2 )
b111110 '
b111110 !
b111110 %
#630000
r0.2032258064516129 $
r0.2032258064516129 )
b111111 '
b111111 !
b111111 %
#640000
r0.2064516129032258 $
r0.2064516129032258 )
b1000000 '
b1000000 !
b1000000 %
#650000
r0.2096774193548387 $
r0.2096774193548387 )
b1000001 '
b1000001 !
b1000001 %
#660000
r0.2129032258064516 $
r0.2129032258064516 )
b1000010 '
b1000010 !
b1000010 %
#670000
r0.2161290322580645 $
r0.2161290322580645 )
b1000011 '
b1000011 !
b1000011 %
#680000
r0.2193548387096774 $
r0.2193548387096774 )
b1000100 '
b1000100 !
b1000100 %
#690000
r0.2225806451612903 $
r0.2225806451612903 )
b1000101 '
b1000101 !
b1000101 %
#700000
r0.2258064516129032 $
r0.2258064516129032 )
b1000110 '
b1000110 !
b1000110 %
#710000
r0.2290322580645161 $
r0.2290322580645161 )
b1000111 '
b1000111 !
b1000111 %
#720000
r0.232258064516129 $
r0.232258064516129 )
b1001000 '
b1001000 !
b1001000 %
#730000
r0.235483870967742 $
r0.235483870967742 )
b1001001 '
b1001001 !
b1001001 %
#740000
r0.2387096774193548 $
r0.2387096774193548 )
b1001010 '
b1001010 !
b1001010 %
#750000
r0.2419354838709677 $
r0.2419354838709677 )
b1001011 '
b1001011 !
b1001011 %
#760000
r0.2451612903225806 $
r0.2451612903225806 )
b1001100 '
b1001100 !
b1001100 %
#770000
r0.2483870967741935 $
r0.2483870967741935 )
b1001101 '
b1001101 !
b1001101 %
#780000
r0.2516129032258064 $
r0.2516129032258064 )
b1001110 '
b1001110 !
b1001110 %
#790000
r0.2548387096774193 $
r0.2548387096774193 )
b1001111 '
b1001111 !
b1001111 %
#800000
r0.2580645161290323 $
r0.2580645161290323 )
b1010000 '
b1010000 !
b1010000 %
#810000
r0.2612903225806452 $
r0.2612903225806452 )
b1010001 '
b1010001 !
b1010001 %
#820000
r0.264516129032258 $
r0.264516129032258 )
b1010010 '
b1010010 !
b1010010 %
#830000
r0.2677419354838709 $
r0.2677419354838709 )
b1010011 '
b1010011 !
b1010011 %
#840000
r0.2709677419354838 $
r0.2709677419354838 )
b1010100 '
b1010100 !
b1010100 %
#850000
r0.2741935483870968 $
r0.2741935483870968 )
b1010101 '
b1010101 !
b1010101 %
#860000
r0.2774193548387097 $
r0.2774193548387097 )
b1010110 '
b1010110 !
b1010110 %
#870000
r0.2806451612903225 $
r0.2806451612903225 )
b1010111 '
b1010111 !
b1010111 %
#880000
r0.2838709677419355 $
r0.2838709677419355 )
b1011000 '
b1011000 !
b1011000 %
#890000
r0.2870967741935484 $
r0.2870967741935484 )
b1011001 '
b1011001 !
b1011001 %
#900000
r0.2903225806451613 $
r0.2903225806451613 )
b1011010 '
b1011010 !
b1011010 %
#910000
r0.2935483870967742 $
r0.2935483870967742 )
b1011011 '
b1011011 !
b1011011 %
#920000
r0.2967741935483871 $
r0.2967741935483871 )
b1011100 '
b1011100 !
b1011100 %
#930000
r0.3 $
r0.3 )
b1011101 '
b1011101 !
b1011101 %
#940000
r0.3032258064516129 $
r0.3032258064516129 )
b1011110 '
b1011110 !
b1011110 %
#950000
r0.3064516129032258 $
r0.3064516129032258 )
b1011111 '
b1011111 !
b1011111 %
#960000
r0.3096774193548387 $
r0.3096774193548387 )
b1100000 '
b1100000 !
b1100000 %
#970000
r0.3129032258064516 $
r0.3129032258064516 )
b1100001 '
b1100001 !
b1100001 %
#980000
r0.3161290322580645 $
r0.3161290322580645 )
b1100010 '
b1100010 !
b1100010 %
#990000
r0.3193548387096774 $
r0.3193548387096774 )
b1100011 '
b1100011 !
b1100011 %
#1000000
r0.3225806451612903 $
r0.3225806451612903 )
b1100100 '
b1100100 !
b1100100 %
#1010000
r0.3258064516129032 $
r0.3258064516129032 )
b1100101 '
b1100101 !
b1100101 %
#1020000
r0.3290322580645161 $
r0.3290322580645161 )
b1100110 '
b1100110 !
b1100110 %
#1030000
r0.332258064516129 $
r0.332258064516129 )
b1100111 '
b1100111 !
b1100111 %
#1040000
r0.335483870967742 $
r0.335483870967742 )
b1101000 '
b1101000 !
b1101000 %
#1050000
r0.3387096774193548 $
r0.3387096774193548 )
b1101001 '
b1101001 !
b1101001 %
#1060000
r0.3419354838709677 $
r0.3419354838709677 )
b1101010 '
b1101010 !
b1101010 %
#1070000
r0.3451612903225806 $
r0.3451612903225806 )
b1101011 '
b1101011 !
b1101011 %
#1080000
r0.3483870967741935 $
r0.3483870967741935 )
b1101100 '
b1101100 !
b1101100 %
#1090000
r0.3516129032258065 $
r0.3516129032258065 )
b1101101 '
b1101101 !
b1101101 %
#1100000
r0.3548387096774193 $
r0.3548387096774193 )
b1101110 '
b1101110 !
b1101110 %
#1110000
r0.3580645161290322 $
r0.3580645161290322 )
b1101111 '
b1101111 !
b1101111 %
#1120000
r0.3612903225806451 $
r0.3612903225806451 )
b1110000 '
b1110000 !
b1110000 %
#1130000
r0.3645161290322581 $
r0.3645161290322581 )
b1110001 '
b1110001 !
b1110001 %
#1140000
r0.367741935483871 $
r0.367741935483871 )
b1110010 '
b1110010 !
b1110010 %
#1150000
r0.3709677419354838 $
r0.3709677419354838 )
b1110011 '
b1110011 !
b1110011 %
#1160000
r0.3741935483870967 $
r0.3741935483870967 )
b1110100 '
b1110100 !
b1110100 %
#1170000
r0.3774193548387096 $
r0.3774193548387096 )
b1110101 '
b1110101 !
b1110101 %
#1180000
r0.3806451612903226 $
r0.3806451612903226 )
b1110110 '
b1110110 !
b1110110 %
#1190000
r0.3838709677419355 $
r0.3838709677419355 )
b1110111 '
b1110111 !
b1110111 %
#1200000
r0.3870967741935484 $
r0.3870967741935484 )
b1111000 '
b1111000 !
b1111000 %
#1210000
r0.3903225806451613 $
r0.3903225806451613 )
b1111001 '
b1111001 !
b1111001 %
#1220000
r0.3935483870967742 $
r0.3935483870967742 )
b1111010 '
b1111010 !
b1111010 %
#1230000
r0.3967741935483871 $
r0.3967741935483871 )
b1111011 '
b1111011 !
b1111011 %
#1240000
r0.4 $
r0.4 )
b1111100 '
b1111100 !
b1111100 %
#1250000
r0.4032258064516129 $
r0.4032258064516129 )
b1111101 '
b1111101 !
b1111101 %
#1260000
r0.4064516129032258 $
r0.4064516129032258 )
b1111110 '
b1111110 !
b1111110 %
#1270000
r0.4096774193548387 $
r0.4096774193548387 )
b1111111 '
b1111111 !
b1111111 %
#1280000
r0.4129032258064516 $
r0.4129032258064516 )
b10000000 '
b10000000 !
b10000000 %
#1290000
r0.4161290322580645 $
r0.4161290322580645 )
b10000001 '
b10000001 !
b10000001 %
#1300000
r0.4193548387096774 $
r0.4193548387096774 )
b10000010 '
b10000010 !
b10000010 %
#1310000
r0.4225806451612903 $
r0.4225806451612903 )
b10000011 '
b10000011 !
b10000011 %
#1320000
r0.4258064516129032 $
r0.4258064516129032 )
b10000100 '
b10000100 !
b10000100 %
#1330000
r0.4290322580645161 $
r0.4290322580645161 )
b10000101 '
b10000101 !
b10000101 %
#1340000
r0.432258064516129 $
r0.432258064516129 )
b10000110 '
b10000110 !
b10000110 %
#1350000
r0.4354838709677419 $
r0.4354838709677419 )
b10000111 '
b10000111 !
b10000111 %
#1360000
r0.4387096774193548 $
r0.4387096774193548 )
b10001000 '
b10001000 !
b10001000 %
#1370000
r0.4419354838709677 $
r0.4419354838709677 )
b10001001 '
b10001001 !
b10001001 %
#1380000
r0.4451612903225806 $
r0.4451612903225806 )
b10001010 '
b10001010 !
b10001010 %
#1390000
r0.4483870967741935 $
r0.4483870967741935 )
b10001011 '
b10001011 !
b10001011 %
#1400000
r0.4516129032258064 $
r0.4516129032258064 )
b10001100 '
b10001100 !
b10001100 %
#1410000
r0.4548387096774193 $
r0.4548387096774193 )
b10001101 '
b10001101 !
b10001101 %
#1420000
r0.4580645161290322 $
r0.4580645161290322 )
b10001110 '
b10001110 !
b10001110 %
#1430000
r0.4612903225806451 $
r0.4612903225806451 )
b10001111 '
b10001111 !
b10001111 %
#1440000
r0.4645161290322581 $
r0.4645161290322581 )
b10010000 '
b10010000 !
b10010000 %
#1450000
r0.467741935483871 $
r0.467741935483871 )
b10010001 '
b10010001 !
b10010001 %
#1460000
r0.4709677419354839 $
r0.4709677419354839 )
b10010010 '
b10010010 !
b10010010 %
#1470000
r0.4741935483870968 $
r0.4741935483870968 )
b10010011 '
b10010011 !
b10010011 %
#1480000
r0.4774193548387097 $
r0.4774193548387097 )
b10010100 '
b10010100 !
b10010100 %
#1490000
r0.4806451612903226 $
r0.4806451612903226 )
b10010101 '
b10010101 !
b10010101 %
#1500000
r0.4838709677419355 $
r0.4838709677419355 )
b10010110 '
b10010110 !
b10010110 %
#1510000
r0.4870967741935484 $
r0.4870967741935484 )
b10010111 '
b10010111 !
b10010111 %
#1520000
r0.4903225806451613 $
r0.4903225806451613 )
b10011000 '
b10011000 !
b10011000 %
#1530000
r0.4935483870967742 $
r0.4935483870967742 )
b10011001 '
b10011001 !
b10011001 %
#1540000
r0.4967741935483871 $
r0.4967741935483871 )
b10011010 '
b10011010 !
b10011010 %
#1550000
r0.5 $
r0.5 )
b10011011 '
b10011011 !
b10011011 %
#1560000
r0.5032258064516129 $
r0.5032258064516129 )
b10011100 '
b10011100 !
b10011100 %
#1570000
r0.5064516129032258 $
r0.5064516129032258 )
b10011101 '
b10011101 !
b10011101 %
#1580000
r0.5096774193548387 $
r0.5096774193548387 )
b10011110 '
b10011110 !
b10011110 %
#1590000
r0.5129032258064515 $
r0.5129032258064515 )
b10011111 '
b10011111 !
b10011111 %
#1600000
r0.5161290322580645 $
r0.5161290322580645 )
b10100000 '
b10100000 !
b10100000 %
#1610000
r0.5193548387096774 $
r0.5193548387096774 )
b10100001 '
b10100001 !
b10100001 %
#1620000
r0.5225806451612903 $
r0.5225806451612903 )
b10100010 '
b10100010 !
b10100010 %
#1630000
r0.5258064516129032 $
r0.5258064516129032 )
b10100011 '
b10100011 !
b10100011 %
#1640000
r0.529032258064516 $
r0.529032258064516 )
b10100100 '
b10100100 !
b10100100 %
#1650000
r0.532258064516129 $
r0.532258064516129 )
b10100101 '
b10100101 !
b10100101 %
#1660000
r0.5354838709677419 $
r0.5354838709677419 )
b10100110 '
b10100110 !
b10100110 %
#1670000
r0.5387096774193548 $
r0.5387096774193548 )
b10100111 '
b10100111 !
b10100111 %
#1680000
r0.5419354838709677 $
r0.5419354838709677 )
b10101000 '
b10101000 !
b10101000 %
#1690000
r0.5451612903225805 $
r0.5451612903225805 )
b10101001 '
b10101001 !
b10101001 %
#1700000
r0.5483870967741935 $
r0.5483870967741935 )
b10101010 '
b10101010 !
b10101010 %
#1710000
r0.5516129032258064 $
r0.5516129032258064 )
b10101011 '
b10101011 !
b10101011 %
#1720000
r0.5548387096774193 $
r0.5548387096774193 )
b10101100 '
b10101100 !
b10101100 %
#1730000
r0.5580645161290322 $
r0.5580645161290322 )
b10101101 '
b10101101 !
b10101101 %
#1740000
r0.561290322580645 $
r0.561290322580645 )
b10101110 '
b10101110 !
b10101110 %
#1750000
r0.564516129032258 $
r0.564516129032258 )
b10101111 '
b10101111 !
b10101111 %
#1760000
r0.567741935483871 $
r0.567741935483871 )
b10110000 '
b10110000 !
b10110000 %
#1770000
r0.5709677419354838 $
r0.5709677419354838 )
b10110001 '
b10110001 !
b10110001 %
#1780000
r0.5741935483870968 $
r0.5741935483870968 )
b10110010 '
b10110010 !
b10110010 %
#1790000
r0.5774193548387097 $
r0.5774193548387097 )
b10110011 '
b10110011 !
b10110011 %
#1800000
r0.5806451612903226 $
r0.5806451612903226 )
b10110100 '
b10110100 !
b10110100 %
#1810000
r0.5838709677419355 $
r0.5838709677419355 )
b10110101 '
b10110101 !
b10110101 %
#1820000
r0.5870967741935483 $
r0.5870967741935483 )
b10110110 '
b10110110 !
b10110110 %
#1830000
r0.5903225806451613 $
r0.5903225806451613 )
b10110111 '
b10110111 !
b10110111 %
#1840000
r0.5935483870967742 $
r0.5935483870967742 )
b10111000 '
b10111000 !
b10111000 %
#1850000
r0.5967741935483871 $
r0.5967741935483871 )
b10111001 '
b10111001 !
b10111001 %
#1860000
r0.6 $
r0.6 )
b10111010 '
b10111010 !
b10111010 %
#1870000
r0.6032258064516128 $
r0.6032258064516128 )
b10111011 '
b10111011 !
b10111011 %
#1880000
r0.6064516129032258 $
r0.6064516129032258 )
b10111100 '
b10111100 !
b10111100 %
#1890000
r0.6096774193548387 $
r0.6096774193548387 )
b10111101 '
b10111101 !
b10111101 %
#1900000
r0.6129032258064516 $
r0.6129032258064516 )
b10111110 '
b10111110 !
b10111110 %
#1910000
r0.6161290322580645 $
r0.6161290322580645 )
b10111111 '
b10111111 !
b10111111 %
#1920000
r0.6193548387096773 $
r0.6193548387096773 )
b11000000 '
b11000000 !
b11000000 %
#1930000
r0.6225806451612903 $
r0.6225806451612903 )
b11000001 '
b11000001 !
b11000001 %
#1940000
r0.6258064516129032 $
r0.6258064516129032 )
b11000010 '
b11000010 !
b11000010 %
#1950000
r0.6290322580645161 $
r0.6290322580645161 )
b11000011 '
b11000011 !
b11000011 %
#1960000
r0.632258064516129 $
r0.632258064516129 )
b11000100 '
b11000100 !
b11000100 %
#1970000
r0.6354838709677418 $
r0.6354838709677418 )
b11000101 '
b11000101 !
b11000101 %
#1980000
r0.6387096774193548 $
r0.6387096774193548 )
b11000110 '
b11000110 !
b11000110 %
#1990000
r0.6419354838709677 $
r0.6419354838709677 )
b11000111 '
b11000111 !
b11000111 %
#2000000
r0.6451612903225806 $
r0.6451612903225806 )
b11001000 '
b11001000 !
b11001000 %
#2010000
r0.6483870967741935 $
r0.6483870967741935 )
b11001001 '
b11001001 !
b11001001 %
#2020000
r0.6516129032258063 $
r0.6516129032258063 )
b11001010 '
b11001010 !
b11001010 %
#2030000
r0.6548387096774193 $
r0.6548387096774193 )
b11001011 '
b11001011 !
b11001011 %
#2040000
r0.6580645161290322 $
r0.6580645161290322 )
b11001100 '
b11001100 !
b11001100 %
#2050000
r0.6612903225806451 $
r0.6612903225806451 )
b11001101 '
b11001101 !
b11001101 %
#2060000
r0.664516129032258 $
r0.664516129032258 )
b11001110 '
b11001110 !
b11001110 %
#2070000
r0.6677419354838708 $
r0.6677419354838708 )
b11001111 '
b11001111 !
b11001111 %
#2080000
r0.6709677419354839 $
r0.6709677419354839 )
b11010000 '
b11010000 !
b11010000 %
#2090000
r0.6741935483870968 $
r0.6741935483870968 )
b11010001 '
b11010001 !
b11010001 %
#2100000
r0.6774193548387096 $
r0.6774193548387096 )
b11010010 '
b11010010 !
b11010010 %
#2110000
r0.6806451612903226 $
r0.6806451612903226 )
b11010011 '
b11010011 !
b11010011 %
#2120000
r0.6838709677419355 $
r0.6838709677419355 )
b11010100 '
b11010100 !
b11010100 %
#2130000
r0.6870967741935484 $
r0.6870967741935484 )
b11010101 '
b11010101 !
b11010101 %
#2140000
r0.6903225806451613 $
r0.6903225806451613 )
b11010110 '
b11010110 !
b11010110 %
#2150000
r0.6935483870967741 $
r0.6935483870967741 )
b11010111 '
b11010111 !
b11010111 %
#2160000
r0.6967741935483871 $
r0.6967741935483871 )
b11011000 '
b11011000 !
b11011000 %
#2170000
r0.7 $
r0.7 )
b11011001 '
b11011001 !
b11011001 %
#2180000
r0.7032258064516129 $
r0.7032258064516129 )
b11011010 '
b11011010 !
b11011010 %
#2190000
r0.7064516129032258 $
r0.7064516129032258 )
b11011011 '
b11011011 !
b11011011 %
#2200000
r0.7096774193548386 $
r0.7096774193548386 )
b11011100 '
b11011100 !
b11011100 %
#2210000
r0.7129032258064516 $
r0.7129032258064516 )
b11011101 '
b11011101 !
b11011101 %
#2220000
r0.7161290322580645 $
r0.7161290322580645 )
b11011110 '
b11011110 !
b11011110 %
#2230000
r0.7193548387096774 $
r0.7193548387096774 )
b11011111 '
b11011111 !
b11011111 %
#2240000
r0.7225806451612903 $
r0.7225806451612903 )
b11100000 '
b11100000 !
b11100000 %
#2250000
r0.7258064516129031 $
r0.7258064516129031 )
b11100001 '
b11100001 !
b11100001 %
#2260000
r0.7290322580645161 $
r0.7290322580645161 )
b11100010 '
b11100010 !
b11100010 %
#2270000
r0.732258064516129 $
r0.732258064516129 )
b11100011 '
b11100011 !
b11100011 %
#2280000
r0.7354838709677419 $
r0.7354838709677419 )
b11100100 '
b11100100 !
b11100100 %
#2290000
r0.7387096774193548 $
r0.7387096774193548 )
b11100101 '
b11100101 !
b11100101 %
#2300000
r0.7419354838709676 $
r0.7419354838709676 )
b11100110 '
b11100110 !
b11100110 %
#2310000
r0.7451612903225806 $
r0.7451612903225806 )
b11100111 '
b11100111 !
b11100111 %
#2320000
r0.7483870967741935 $
r0.7483870967741935 )
b11101000 '
b11101000 !
b11101000 %
#2330000
r0.7516129032258064 $
r0.7516129032258064 )
b11101001 '
b11101001 !
b11101001 %
#2340000
r0.7548387096774193 $
r0.7548387096774193 )
b11101010 '
b11101010 !
b11101010 %
#2350000
r0.7580645161290321 $
r0.7580645161290321 )
b11101011 '
b11101011 !
b11101011 %
#2360000
r0.7612903225806451 $
r0.7612903225806451 )
b11101100 '
b11101100 !
b11101100 %
#2370000
r0.764516129032258 $
r0.764516129032258 )
b11101101 '
b11101101 !
b11101101 %
#2380000
r0.7677419354838709 $
r0.7677419354838709 )
b11101110 '
b11101110 !
b11101110 %
#2390000
r0.7709677419354838 $
r0.7709677419354838 )
b11101111 '
b11101111 !
b11101111 %
#2400000
r0.7741935483870968 $
r0.7741935483870968 )
b11110000 '
b11110000 !
b11110000 %
#2410000
r0.7774193548387097 $
r0.7774193548387097 )
b11110001 '
b11110001 !
b11110001 %
#2420000
r0.7806451612903226 $
r0.7806451612903226 )
b11110010 '
b11110010 !
b11110010 %
#2430000
r0.7838709677419354 $
r0.7838709677419354 )
b11110011 '
b11110011 !
b11110011 %
#2440000
r0.7870967741935484 $
r0.7870967741935484 )
b11110100 '
b11110100 !
b11110100 %
#2450000
r0.7903225806451613 $
r0.7903225806451613 )
b11110101 '
b11110101 !
b11110101 %
#2460000
r0.7935483870967742 $
r0.7935483870967742 )
b11110110 '
b11110110 !
b11110110 %
#2470000
r0.7967741935483871 $
r0.7967741935483871 )
b11110111 '
b11110111 !
b11110111 %
#2480000
r0.7999999999999999 $
r0.7999999999999999 )
b11111000 '
b11111000 !
b11111000 %
#2490000
r0.8032258064516129 $
r0.8032258064516129 )
b11111001 '
b11111001 !
b11111001 %
#2500000
r0.8064516129032258 $
r0.8064516129032258 )
b11111010 '
b11111010 !
b11111010 %
#2510000
r0.8096774193548387 $
r0.8096774193548387 )
b11111011 '
b11111011 !
b11111011 %
#2520000
r0.8129032258064516 $
r0.8129032258064516 )
b11111100 '
b11111100 !
b11111100 %
#2530000
r0.8161290322580644 $
r0.8161290322580644 )
b11111101 '
b11111101 !
b11111101 %
#2540000
r0.8193548387096774 $
r0.8193548387096774 )
b11111110 '
b11111110 !
b11111110 %
#2550000
r0.8225806451612903 $
r0.8225806451612903 )
b11111111 '
b11111111 !
b11111111 %
#2560000
r0.8258064516129032 $
r0.8258064516129032 )
b100000000 '
b100000000 !
b100000000 %
#2570000
r0.8290322580645161 $
r0.8290322580645161 )
b100000001 '
b100000001 !
b100000001 %
#2580000
r0.8322580645161289 $
r0.8322580645161289 )
b100000010 '
b100000010 !
b100000010 %
#2590000
r0.8354838709677419 $
r0.8354838709677419 )
b100000011 '
b100000011 !
b100000011 %
#2600000
r0.8387096774193548 $
r0.8387096774193548 )
b100000100 '
b100000100 !
b100000100 %
#2610000
r0.8419354838709677 $
r0.8419354838709677 )
b100000101 '
b100000101 !
b100000101 %
#2620000
r0.8451612903225806 $
r0.8451612903225806 )
b100000110 '
b100000110 !
b100000110 %
#2630000
r0.8483870967741934 $
r0.8483870967741934 )
b100000111 '
b100000111 !
b100000111 %
#2640000
r0.8516129032258064 $
r0.8516129032258064 )
b100001000 '
b100001000 !
b100001000 %
#2650000
r0.8548387096774193 $
r0.8548387096774193 )
b100001001 '
b100001001 !
b100001001 %
#2660000
r0.8580645161290322 $
r0.8580645161290322 )
b100001010 '
b100001010 !
b100001010 %
#2670000
r0.8612903225806451 $
r0.8612903225806451 )
b100001011 '
b100001011 !
b100001011 %
#2680000
r0.8645161290322579 $
r0.8645161290322579 )
b100001100 '
b100001100 !
b100001100 %
#2690000
r0.8677419354838709 $
r0.8677419354838709 )
b100001101 '
b100001101 !
b100001101 %
#2700000
r0.8709677419354838 $
r0.8709677419354838 )
b100001110 '
b100001110 !
b100001110 %
#2710000
r0.8741935483870967 $
r0.8741935483870967 )
b100001111 '
b100001111 !
b100001111 %
#2720000
r0.8774193548387096 $
r0.8774193548387096 )
b100010000 '
b100010000 !
b100010000 %
#2730000
r0.8806451612903224 $
r0.8806451612903224 )
b100010001 '
b100010001 !
b100010001 %
#2740000
r0.8838709677419354 $
r0.8838709677419354 )
b100010010 '
b100010010 !
b100010010 %
#2750000
r0.8870967741935483 $
r0.8870967741935483 )
b100010011 '
b100010011 !
b100010011 %
#2760000
r0.8903225806451612 $
r0.8903225806451612 )
b100010100 '
b100010100 !
b100010100 %
#2770000
r0.8935483870967741 $
r0.8935483870967741 )
b100010101 '
b100010101 !
b100010101 %
#2780000
r0.8967741935483869 $
r0.8967741935483869 )
b100010110 '
b100010110 !
b100010110 %
#2790000
r0.8999999999999999 $
r0.8999999999999999 )
b100010111 '
b100010111 !
b100010111 %
#2800000
r0.9032258064516128 $
r0.9032258064516128 )
b100011000 '
b100011000 !
b100011000 %
#2810000
r0.9064516129032257 $
r0.9064516129032257 )
b100011001 '
b100011001 !
b100011001 %
#2820000
r0.9096774193548386 $
r0.9096774193548386 )
b100011010 '
b100011010 !
b100011010 %
#2830000
r0.9129032258064514 $
r0.9129032258064514 )
b100011011 '
b100011011 !
b100011011 %
#2840000
r0.9161290322580644 $
r0.9161290322580644 )
b100011100 '
b100011100 !
b100011100 %
#2850000
r0.9193548387096773 $
r0.9193548387096773 )
b100011101 '
b100011101 !
b100011101 %
#2860000
r0.9225806451612902 $
r0.9225806451612902 )
b100011110 '
b100011110 !
b100011110 %
#2870000
r0.9258064516129031 $
r0.9258064516129031 )
b100011111 '
b100011111 !
b100011111 %
#2880000
r0.9290322580645162 $
r0.9290322580645162 )
b100100000 '
b100100000 !
b100100000 %
#2890000
r0.932258064516129 $
r0.932258064516129 )
b100100001 '
b100100001 !
b100100001 %
#2900000
r0.935483870967742 $
r0.935483870967742 )
b100100010 '
b100100010 !
b100100010 %
#2910000
r0.9387096774193548 $
r0.9387096774193548 )
b100100011 '
b100100011 !
b100100011 %
#2920000
r0.9419354838709678 $
r0.9419354838709678 )
b100100100 '
b100100100 !
b100100100 %
#2930000
r0.9451612903225807 $
r0.9451612903225807 )
b100100101 '
b100100101 !
b100100101 %
#2940000
r0.9483870967741935 $
r0.9483870967741935 )
b100100110 '
b100100110 !
b100100110 %
#2950000
r0.9516129032258065 $
r0.9516129032258065 )
b100100111 '
b100100111 !
b100100111 %
#2960000
r0.9548387096774194 $
r0.9548387096774194 )
b100101000 '
b100101000 !
b100101000 %
#2970000
r0.9580645161290323 $
r0.9580645161290323 )
b100101001 '
b100101001 !
b100101001 %
#2980000
r0.9612903225806452 $
r0.9612903225806452 )
b100101010 '
b100101010 !
b100101010 %
#2990000
r0.964516129032258 $
r0.964516129032258 )
b100101011 '
b100101011 !
b100101011 %
#3000000
r0.967741935483871 $
r0.967741935483871 )
b100101100 '
b100101100 !
b100101100 %
